{
	"agcgw":{
		"backurl":"connect-dra.dbankcloud.cn",
		"url":"connect-dra.hispace.hicloud.com",
		"websocketbackurl":"connect-ws-dra.hispace.dbankcloud.cn",
		"websocketurl":"connect-ws-dra.hispace.dbankcloud.com"
	},
	"agcgw_all":{
		"CN":"connect-drcn.hispace.hicloud.com",
		"CN_back":"connect-drcn.dbankcloud.cn",
		"DE":"connect-dre.hispace.hicloud.com",
		"DE_back":"connect-dre.dbankcloud.cn",
		"RU":"connect-drru.hispace.hicloud.com",
		"RU_back":"connect-drru.dbankcloud.cn",
		"SG":"connect-dra.hispace.hicloud.com",
		"SG_back":"connect-dra.dbankcloud.cn"
	},
	"client":{
		"cp_id":"70052000000296708",
		"product_id":"736430079244813700",
		"client_id":"559662595301180480",
		"client_secret":"87F1A77BDC7E7B5D273F378D1B0A24CA58F0DD445216F5BCFB1B3D432E7D9AEB",
		"project_id":"736430079244813700",
		"app_id":"103848339",
		"api_key":"CgB6e3x9PtxfX1qVcqqdg/FLiVxspK9h8FW8cdMs86lCebzdxAMEHO9+87RIUtizNLc53Nnu73+LQ8gDnDxNhEcV",
		"package_name":"mx.com.procesar.demo.huawei"
	},
	"service":{
		"analytics":{
			"collector_url":"datacollector-dra.dt.hicloud.com,datacollector-dra.dt.dbankcloud.cn",
			"resource_id":"p1",
			"channel_id":""
		},
		"search":{
			"url":"https://search-dra.cloud.huawei.com"
		},
		"cloudstorage":{
			"storage_url":"https://ops-dra.agcstorage.link"
		},
		"ml":{
			"mlservice_url":"ml-api-dra.ai.dbankcloud.com,ml-api-dra.ai.dbankcloud.cn"
		}
	},
	"region":"SG",
	"configuration_version":"2.0",
	"appInfos":[
		{
			"package_name":"mx.com.procesar.demo.huawei",
			"app_id":"103848339"
		}
	]
}